module gitlab.com/Pereselkov777/discordstt

go 1.20

require (
	github.com/bwmarrin/discordgo v0.27.1
	github.com/pion/rtp v1.8.3
	github.com/pion/webrtc/v3 v3.2.24
)

require (
	github.com/gorilla/websocket v1.4.2 // indirect
	github.com/pion/randutil v0.1.0 // indirect
	golang.org/x/crypto v0.12.0 // indirect
	golang.org/x/sys v0.11.0 // indirect
)
